<svg width="24.000000" height="15.760742" viewBox="0 0 24 15.7607" fill="none" xmlns="http://www.w3.org/2000/svg"
	xmlns:xlink="http://www.w3.org/1999/xlink">
	<desc>
		Created with Pixso.
	</desc>
	<defs />
	<path id="Vector"
		d="M0.421875 1.14453C0.421875 0.952637 0.498169 0.768555 0.633789 0.632812C0.769531 0.49707 0.953613 0.420898 1.14551 0.420898L22.8561 0.420898C23.048 0.420898 23.2321 0.49707 23.3678 0.632812C23.5035 0.768555 23.5797 0.952637 23.5797 1.14453C23.5797 1.33643 23.5035 1.52051 23.3678 1.65625C23.2321 1.79199 23.048 1.86816 22.8561 1.86816L12.0009 1.86816L1.14551 1.86816C0.953613 1.86816 0.769531 1.79199 0.633789 1.65625C0.498169 1.52051 0.421875 1.33643 0.421875 1.14453ZM22.8561 7.15649L1.14551 7.15649C0.953613 7.15649 0.769531 7.23291 0.633789 7.36841C0.498169 7.50415 0.421875 7.68823 0.421875 7.88013C0.421875 8.07227 0.498169 8.25635 0.633789 8.39185C0.769531 8.52759 0.953613 8.604 1.14551 8.604L22.8561 8.604C23.048 8.604 23.2321 8.52759 23.3678 8.39185C23.5035 8.25635 23.5797 8.07227 23.5797 7.88013C23.5797 7.68823 23.5035 7.50415 23.3678 7.36841C23.2321 7.23291 23.048 7.15649 22.8561 7.15649ZM12.0009 13.8921L1.14551 13.8921C0.953613 13.8921 0.769531 13.9685 0.633789 14.1042C0.498169 14.24 0.421875 14.4238 0.421875 14.616C0.421875 14.8079 0.498169 14.9919 0.633789 15.1277C0.769531 15.2634 0.953613 15.3396 1.14551 15.3396L12.0009 15.3396C12.1927 15.3396 12.3768 15.2634 12.5126 15.1277C12.6483 14.9919 12.7245 14.8079 12.7245 14.616C12.7245 14.4238 12.6483 14.24 12.5126 14.1042C12.3768 13.9685 12.1927 13.8921 12.0009 13.8921Z"
		fill="#0C0C0C" fill-opacity="1.000000" fill-rule="nonzero" />
	<path id="Vector (Stroke)"
		d="M0 1.14478C0 0.841064 0.120605 0.550049 0.335327 0.335205C0.549927 0.120605 0.841187 0 1.14478 0L22.8552 0C23.1588 0 23.4501 0.120605 23.6647 0.335205C23.8794 0.550049 24 0.841064 24 1.14478C24 1.44824 23.8794 1.7395 23.6647 1.9541C23.4501 2.16895 23.1588 2.28955 22.8552 2.28955L1.14478 2.28955C0.841187 2.28955 0.549927 2.16895 0.335327 1.9541C0.120605 1.7395 0 1.44824 0 1.14478ZM0.335327 7.07104C0.549927 6.8562 0.841187 6.7356 1.14478 6.7356L22.8552 6.7356C23.1588 6.7356 23.4501 6.8562 23.6647 7.07104C23.8794 7.28564 24 7.5769 24 7.88037C24 8.18408 23.8794 8.4751 23.6647 8.68994C23.4501 8.90454 23.1588 9.02515 22.8552 9.02515L1.14478 9.02515C0.841187 9.02515 0.549927 8.90454 0.335327 8.68994C0.120605 8.4751 0 8.18408 0 7.88037C0 7.5769 0.120605 7.28564 0.335327 7.07104ZM1.14478 13.4712L12 13.4712C12.3036 13.4712 12.5947 13.5918 12.8094 13.8066C13.0242 14.0212 13.1448 14.3125 13.1448 14.616C13.1448 14.9197 13.0242 15.2107 12.8094 15.4255C12.5947 15.6401 12.3036 15.7607 12 15.7607L1.14478 15.7607C0.841187 15.7607 0.549927 15.6401 0.335327 15.4255C0.120605 15.2107 0 14.9197 0 14.616C0 14.3125 0.120605 14.0212 0.335327 13.8066C0.549927 13.5918 0.841187 13.4712 1.14478 13.4712ZM0.633057 0.633057C0.497314 0.768799 0.421021 0.952881 0.421021 1.14478C0.421021 1.33667 0.497314 1.52075 0.633057 1.65649C0.768677 1.79224 0.952759 1.86841 1.14478 1.86841L22.8552 1.86841C23.0472 1.86841 23.2313 1.79224 23.3669 1.65649C23.5027 1.52075 23.579 1.33667 23.579 1.14478C23.579 0.952881 23.5027 0.768799 23.3669 0.633057C23.2313 0.497314 23.0472 0.421143 22.8552 0.421143L1.14478 0.421143C0.952759 0.421143 0.768677 0.497314 0.633057 0.633057ZM1.14478 7.15674L22.8552 7.15674C23.0472 7.15674 23.2313 7.23291 23.3669 7.36865C23.5027 7.50439 23.579 7.68848 23.579 7.88037C23.579 8.07227 23.5027 8.25635 23.3669 8.39209C23.2313 8.52783 23.0472 8.604 22.8552 8.604L1.14478 8.604C0.952759 8.604 0.768677 8.52783 0.633057 8.39209C0.497314 8.25635 0.421021 8.07227 0.421021 7.88037C0.421021 7.68848 0.497314 7.50439 0.633057 7.36865C0.768677 7.23291 0.952759 7.15674 1.14478 7.15674ZM1.14478 13.8923L12 13.8923C12.1919 13.8923 12.376 13.9685 12.5117 14.1042C12.6475 14.24 12.7236 14.4241 12.7236 14.616C12.7236 14.8079 12.6475 14.9919 12.5117 15.1277C12.376 15.2634 12.1919 15.3396 12 15.3396L1.14478 15.3396C0.952759 15.3396 0.768677 15.2634 0.633057 15.1277C0.497314 14.9919 0.421021 14.8079 0.421021 14.616C0.421021 14.4241 0.497314 14.24 0.633057 14.1042C0.768677 13.9685 0.952759 13.8923 1.14478 13.8923Z"
		fill="#0C0C0C" fill-opacity="1.000000" fill-rule="evenodd" />
</svg>