<svg width="32.000000" height="32.000000" viewBox="0 0 32 32" fill="none" xmlns="http://www.w3.org/2000/svg" xmlns:xlink="http://www.w3.org/1999/xlink">
	<desc>
			Created with Pixso.
	</desc>
	<defs>
		<clipPath id="clip2_4365">
			<rect id="Иконки" width="32.000000" height="32.000000" fill="white" fill-opacity="0"/>
		</clipPath>
	</defs>
	<g clip-path="url(#clip2_4365)">
		<circle id="Ellipse 2" cx="16.000000" cy="16.000000" r="16.000000" fill="#9E9E9E" fill-opacity="1.000000"/>
		<path id="Vector" d="M26.5536 20.9066C26.5278 20.851 26.5037 20.8047 26.4813 20.7678C26.1112 20.1011 25.4039 19.2829 24.3598 18.3129L24.3378 18.2906L24.3267 18.2797L24.3155 18.2686L24.3043 18.2686C23.8305 17.8169 23.5304 17.5131 23.4048 17.3577C23.1748 17.0614 23.1233 16.7616 23.249 16.4578C23.3378 16.2283 23.6713 15.7435 24.2487 15.0029C24.5524 14.6104 24.7929 14.2958 24.9706 14.0588C26.2517 12.3556 26.8072 11.2672 26.6368 10.7933L26.5706 10.6825C26.5261 10.6158 26.4113 10.5548 26.2264 10.4991C26.0411 10.4437 25.8042 10.4344 25.5153 10.4715L22.3165 10.4936C22.2647 10.4752 22.1907 10.4769 22.0943 10.4991C21.998 10.5214 21.9498 10.5326 21.9498 10.5326L21.8942 10.5604L21.85 10.5938C21.8129 10.6159 21.7722 10.6548 21.7277 10.7103C21.6835 10.7657 21.6465 10.8307 21.6169 10.9047C21.2687 11.8007 20.8727 12.6338 20.4283 13.4038C20.1543 13.863 19.9027 14.261 19.6729 14.5979C19.4434 14.9348 19.2508 15.1829 19.0954 15.342C18.9398 15.5012 18.7994 15.6288 18.6733 15.7252C18.5473 15.8215 18.4512 15.8623 18.3846 15.8474C18.3179 15.8325 18.2551 15.8177 18.1956 15.8029C18.092 15.7363 18.0087 15.6456 17.9458 15.5308C17.8827 15.416 17.8402 15.2715 17.818 15.0975C17.7959 14.9234 17.7829 14.7736 17.7791 14.6477C17.7757 14.5219 17.7773 14.344 17.7848 14.1145C17.7925 13.8848 17.7959 13.7294 17.7959 13.648C17.7959 13.3666 17.8014 13.0611 17.8124 12.7316C17.8236 12.4021 17.8327 12.141 17.8403 11.9487C17.8478 11.7561 17.8513 11.5524 17.8513 11.3376C17.8513 11.1229 17.8383 10.9545 17.8124 10.8323C17.7869 10.7102 17.7477 10.5917 17.6961 10.4768C17.6442 10.3621 17.5681 10.2733 17.4684 10.2102C17.3685 10.1473 17.2442 10.0974 17.0963 10.0602C16.7038 9.97137 16.204 9.92334 15.5967 9.91589C14.2194 9.90112 13.3345 9.99005 12.942 10.1826C12.7865 10.2639 12.6458 10.3751 12.52 10.5157C12.3867 10.6786 12.3681 10.7676 12.4643 10.7822C12.9087 10.8488 13.2233 11.008 13.4084 11.2598L13.4751 11.3931C13.527 11.4894 13.5788 11.6598 13.6307 11.9041C13.6825 12.1484 13.7159 12.4187 13.7306 12.7148C13.7676 13.2554 13.7676 13.7182 13.7306 14.1032C13.6935 14.4883 13.6585 14.7882 13.6251 15.0029C13.5917 15.2177 13.5417 15.3917 13.4751 15.525C13.4084 15.6583 13.364 15.7397 13.3418 15.7693C13.3196 15.7988 13.301 15.8174 13.2863 15.8248C13.1901 15.8617 13.09 15.8804 12.9864 15.8804C12.8826 15.8804 12.7568 15.8286 12.6087 15.7249C12.4607 15.6211 12.3071 15.4786 12.1478 15.2972C11.9886 15.1157 11.809 14.8621 11.609 14.5363C11.4092 14.2106 11.2018 13.8255 10.9871 13.3812L10.8094 13.059C10.6983 12.8517 10.5466 12.5499 10.3541 12.1539C10.1614 11.7576 9.99112 11.3743 9.84309 11.0041C9.78392 10.8486 9.69502 10.7302 9.57656 10.6487L9.52097 10.6153C9.48401 10.5858 9.42468 10.5543 9.34329 10.5209C9.26179 10.4875 9.17674 10.4635 9.08781 10.4487L6.04438 10.4708C5.73339 10.4708 5.52237 10.5413 5.41126 10.682L5.36679 10.7486C5.34458 10.7856 5.33337 10.8448 5.33337 10.9264C5.33337 11.0079 5.35559 11.1078 5.40006 11.2262C5.84434 12.2704 6.32749 13.2774 6.8495 14.2474C7.37152 15.2175 7.82514 15.9989 8.21009 16.5909C8.59513 17.1834 8.98759 17.7426 9.38749 18.2681C9.78738 18.7939 10.0521 19.1309 10.1816 19.2789C10.3113 19.4272 10.4131 19.5381 10.4871 19.6121L10.7649 19.8787C10.9426 20.0564 11.2036 20.2693 11.5479 20.5173C11.8923 20.7655 12.2736 21.0098 12.692 21.2507C13.1104 21.4911 13.5973 21.6874 14.1527 21.8391C14.708 21.991 15.2486 22.052 15.7744 22.0226L17.0517 22.0226C17.3108 22.0002 17.5071 21.9188 17.6405 21.7781L17.6847 21.7225C17.7144 21.6783 17.7422 21.6096 17.7679 21.5172C17.7939 21.4247 17.8068 21.3227 17.8068 21.2118C17.7992 20.8934 17.8234 20.6065 17.8788 20.3511C17.9342 20.0957 17.9973 19.9032 18.0679 19.7735C18.1384 19.644 18.218 19.5346 18.3066 19.446C18.3954 19.3572 18.4586 19.3034 18.4957 19.2849C18.5326 19.2662 18.5621 19.2536 18.5843 19.246C18.762 19.1868 18.9711 19.2441 19.212 19.4183C19.4527 19.5923 19.6785 19.8072 19.8897 20.0626C20.1007 20.3182 20.3543 20.6049 20.6504 20.9233C20.9468 21.2418 21.2059 21.4785 21.4279 21.6342L21.65 21.7675C21.7983 21.8564 21.9908 21.9379 22.2278 22.0119C22.4644 22.0859 22.6717 22.1044 22.8497 22.0674L25.6931 22.0231C25.9743 22.0231 26.1931 21.9765 26.3484 21.8842C26.5039 21.7916 26.5963 21.6896 26.6261 21.5787C26.6558 21.4677 26.6574 21.3417 26.6317 21.2009C26.6054 21.0604 26.5794 20.9622 26.5536 20.9066Z" fill="#F0F6F9" fill-opacity="1.000000" fill-rule="nonzero"/>
	</g>
</svg>
