<svg width="44.255493" height="30.662109" viewBox="0 0 44.2555 30.6621" fill="none" xmlns="http://www.w3.org/2000/svg" xmlns:xlink="http://www.w3.org/1999/xlink">
	<desc>
			Created with Pixso.
	</desc>
	<defs/>
	<path id="Union" d="M0 14.3088L3.08765 14.3088L3.08765 26.5737L0 26.5737L0 30.6621L44.2555 30.6621L44.2555 26.5737L41.168 26.5737L41.168 14.3088L44.2555 14.3088L28.8175 0L22.1278 6.20044L15.438 0L0 14.3088ZM37.0511 26.5737L37.0511 13.2236L28.8175 5.59229L25.1445 8.99658L30.876 14.3088L27.7883 14.3088L27.7883 26.5737L37.0511 26.5737ZM23.6715 26.5737L23.6715 13.2236L15.438 5.59229L7.20435 13.2236L7.20435 26.5737L23.6715 26.5737Z" fill="#074CE7" fill-opacity="1.000000" fill-rule="evenodd"/>
</svg>
